2020-04-18T09:53:08.0909000+07:00  [INF] Application started. Press Ctrl+C to shut down. (dcaefe54)
2020-04-18T09:53:08.1291320+07:00  [INF] Hosting environment: "Development" (c3307c92)
2020-04-18T09:53:08.1312747+07:00  [INF] Content root path: "D:\angular_api\API_Blog\API_Blog" (b5d60022)
2020-04-18T09:53:09.6638460+07:00 80000423-0001-fe00-b63f-84710c7967bb [WRN] Sensitive data logging is enabled. Log entries and exception messages may include sensitive application data, this mode should only be enabled during development. (2b730620)
2020-04-18T09:53:09.7413420+07:00 80000423-0001-fe00-b63f-84710c7967bb [INF] Entity Framework Core "3.1.3" initialized '"BlogContext"' using provider '"Microsoft.EntityFrameworkCore.SqlServer"' with options: "SensitiveDataLoggingEnabled " (9958f5bb)
2020-04-18T09:53:12.2567885+07:00 80000423-0001-fe00-b63f-84710c7967bb [INF] Executed DbCommand ("28"ms) [Parameters=[""], CommandType='Text', CommandTimeout='30']"
""SELECT [c].[Id], [c].[cateName]
FROM [Categories] AS [c]" (0723d8ff)
2020-04-18T09:54:15.7670698+07:00 80000224-0003-ff00-b63f-84710c7967bb [INF] Entity Framework Core "3.1.3" initialized '"BlogContext"' using provider '"Microsoft.EntityFrameworkCore.SqlServer"' with options: "SensitiveDataLoggingEnabled " (9958f5bb)
2020-04-18T09:54:15.7670698+07:00 80000357-0002-fd00-b63f-84710c7967bb [INF] Entity Framework Core "3.1.3" initialized '"BlogContext"' using provider '"Microsoft.EntityFrameworkCore.SqlServer"' with options: "SensitiveDataLoggingEnabled " (9958f5bb)
2020-04-18T09:54:15.7675297+07:00 800004ec-0001-fd00-b63f-84710c7967bb [INF] Entity Framework Core "3.1.3" initialized '"BlogContext"' using provider '"Microsoft.EntityFrameworkCore.SqlServer"' with options: "SensitiveDataLoggingEnabled " (9958f5bb)
2020-04-18T09:54:15.7719235+07:00 80000215-0003-fe00-b63f-84710c7967bb [INF] Entity Framework Core "3.1.3" initialized '"BlogContext"' using provider '"Microsoft.EntityFrameworkCore.SqlServer"' with options: "SensitiveDataLoggingEnabled " (9958f5bb)
2020-04-18T09:54:15.7797552+07:00 80000357-0002-fd00-b63f-84710c7967bb [INF] Executed DbCommand ("9"ms) [Parameters=[""], CommandType='Text', CommandTimeout='30']"
""SELECT [c].[Id], [c].[cateName]
FROM [Categories] AS [c]" (0723d8ff)
2020-04-18T09:54:15.9012263+07:00 80000215-0003-fe00-b63f-84710c7967bb [INF] Executed DbCommand ("37"ms) [Parameters=[""], CommandType='Text', CommandTimeout='30']"
""SELECT COUNT(*)
FROM [Posts] AS [p]
WHERE [p].[status] = 0" (0723d8ff)
2020-04-18T09:54:15.9255038+07:00 800004ec-0001-fd00-b63f-84710c7967bb [INF] Executed DbCommand ("41"ms) [Parameters=["@__getUrl_1='http://localhost:63168/images' (Size = 4000), @__p_0='12'"], CommandType='Text', CommandTimeout='30']"
""SELECT [t].[dateCreate], [t].[Id], @__getUrl_1 + [t].[pathThumbnail] AS [pathThumbnail], [t].[postTitle], [t].[summaryContent], [u].[Id], [u].[address], [u].[description], [u].[email], [u].[fullName], [u].[password], [u].[pathAvatar], [u].[phoneNumber], [u].[roleId], [u].[status], [s].[Id], [s].[categoryId], [s].[pathThumbnail], [s].[subCateName]
FROM (
    SELECT TOP(@__p_0) [p].[Id], [p].[dateCreate], [p].[detailContent], [p].[pathThumbnail], [p].[postTitle], [p].[status], [p].[subCategoriesId], [p].[summaryContent], [p].[userId], (
        SELECT TOP(1) [c].[Id]
        FROM [Comments] AS [c]
        WHERE [p].[Id] = [c].[postId]
        ORDER BY [c].[dateCreate] DESC) AS [c]
    FROM [Posts] AS [p]
    ORDER BY (
        SELECT TOP(1) [c].[Id]
        FROM [Comments] AS [c]
        WHERE [p].[Id] = [c].[postId]
        ORDER BY [c].[dateCreate] DESC) DESC
) AS [t]
INNER JOIN [Users] AS [u] ON [t].[userId] = [u].[Id]
INNER JOIN [SubCategories] AS [s] ON [t].[subCategoriesId] = [s].[Id]
WHERE [t].[status] = 0
ORDER BY [t].[c] DESC" (0723d8ff)
2020-04-18T09:54:15.9255037+07:00 80000215-0003-fe00-b63f-84710c7967bb [INF] Executed DbCommand ("10"ms) [Parameters=["@__getUrl_1='http://localhost:63168/images' (Size = 4000), @__p_0='9'"], CommandType='Text', CommandTimeout='30']"
""SELECT [t].[dateCreate], [t].[Id], @__getUrl_1 + [t].[pathThumbnail] AS [pathThumbnail], [t].[postTitle], [t].[summaryContent], [u].[Id], [u].[address], [u].[description], [u].[email], [u].[fullName], [u].[password], [u].[pathAvatar], [u].[phoneNumber], [u].[roleId], [u].[status], [s].[Id], [s].[categoryId], [s].[pathThumbnail], [s].[subCateName]
FROM (
    SELECT [p].[Id], [p].[dateCreate], [p].[detailContent], [p].[pathThumbnail], [p].[postTitle], [p].[status], [p].[subCategoriesId], [p].[summaryContent], [p].[userId]
    FROM [Posts] AS [p]
    WHERE [p].[status] = 0
    ORDER BY [p].[dateCreate] DESC
    OFFSET 0 ROWS FETCH NEXT @__p_0 ROWS ONLY
) AS [t]
INNER JOIN [Users] AS [u] ON [t].[userId] = [u].[Id]
INNER JOIN [SubCategories] AS [s] ON [t].[subCategoriesId] = [s].[Id]
ORDER BY [t].[dateCreate] DESC" (0723d8ff)
2020-04-18T09:54:15.9255084+07:00 80000224-0003-ff00-b63f-84710c7967bb [INF] Executed DbCommand ("50"ms) [Parameters=["@__p_0='9', @__getUrl_1='http://localhost:63168/images' (Size = 4000)"], CommandType='Text', CommandTimeout='30']"
""SELECT TOP(@__p_0) [p].[dateCreate], [p].[Id], @__getUrl_1 + [p].[pathThumbnail] AS [pathThumbnail], [p].[postTitle], [p].[summaryContent], [p].[fullName], [p].[subCateName]
FROM [PostsHotViews] AS [p]
WHERE [p].[status] = 0" (0723d8ff)
2020-04-18T10:05:08.8731455+07:00  [INF] Application started. Press Ctrl+C to shut down. (dcaefe54)
2020-04-18T10:05:08.8841893+07:00  [INF] Hosting environment: "Development" (c3307c92)
2020-04-18T10:05:08.8855553+07:00  [INF] Content root path: "D:\angular_api\API_Blog\API_Blog" (b5d60022)
2020-04-18T10:05:09.6817548+07:00 80000427-0001-fe00-b63f-84710c7967bb [WRN] Sensitive data logging is enabled. Log entries and exception messages may include sensitive application data, this mode should only be enabled during development. (2b730620)
2020-04-18T10:05:09.7585716+07:00 80000427-0001-fe00-b63f-84710c7967bb [INF] Entity Framework Core "3.1.3" initialized '"BlogContext"' using provider '"Microsoft.EntityFrameworkCore.SqlServer"' with options: "SensitiveDataLoggingEnabled " (9958f5bb)
2020-04-18T10:05:10.3625607+07:00 80000427-0001-fe00-b63f-84710c7967bb [INF] Executed DbCommand ("25"ms) [Parameters=[""], CommandType='Text', CommandTimeout='30']"
""SELECT [c].[Id], [c].[cateName]
FROM [Categories] AS [c]" (0723d8ff)
2020-04-18T10:05:49.1803491+07:00 80000008-0003-fb00-b63f-84710c7967bb [INF] Entity Framework Core "3.1.3" initialized '"BlogContext"' using provider '"Microsoft.EntityFrameworkCore.SqlServer"' with options: "SensitiveDataLoggingEnabled " (9958f5bb)
2020-04-18T10:05:49.1854139+07:00 80000218-0003-fe00-b63f-84710c7967bb [INF] Entity Framework Core "3.1.3" initialized '"BlogContext"' using provider '"Microsoft.EntityFrameworkCore.SqlServer"' with options: "SensitiveDataLoggingEnabled " (9958f5bb)
2020-04-18T10:05:49.1910310+07:00 80000227-0003-ff00-b63f-84710c7967bb [INF] Entity Framework Core "3.1.3" initialized '"BlogContext"' using provider '"Microsoft.EntityFrameworkCore.SqlServer"' with options: "SensitiveDataLoggingEnabled " (9958f5bb)
2020-04-18T10:05:49.1918089+07:00 800003d2-0002-fe00-b63f-84710c7967bb [INF] Entity Framework Core "3.1.3" initialized '"BlogContext"' using provider '"Microsoft.EntityFrameworkCore.SqlServer"' with options: "SensitiveDataLoggingEnabled " (9958f5bb)
2020-04-18T10:05:49.2162817+07:00 80000227-0003-ff00-b63f-84710c7967bb [INF] Executed DbCommand ("21"ms) [Parameters=[""], CommandType='Text', CommandTimeout='30']"
""SELECT [c].[Id], [c].[cateName]
FROM [Categories] AS [c]" (0723d8ff)
2020-04-18T10:05:49.3529101+07:00 80000218-0003-fe00-b63f-84710c7967bb [INF] Executed DbCommand ("34"ms) [Parameters=[""], CommandType='Text', CommandTimeout='30']"
""SELECT COUNT(*)
FROM [Posts] AS [p]
WHERE [p].[status] = 0" (0723d8ff)
2020-04-18T10:05:49.3880175+07:00 80000218-0003-fe00-b63f-84710c7967bb [INF] Executed DbCommand ("9"ms) [Parameters=["@__getUrl_1='http://localhost:63168/images' (Size = 4000), @__p_0='9'"], CommandType='Text', CommandTimeout='30']"
""SELECT [t].[dateCreate], [t].[Id], @__getUrl_1 + [t].[pathThumbnail] AS [pathThumbnail], [t].[postTitle], [t].[summaryContent], [u].[Id], [u].[address], [u].[description], [u].[email], [u].[fullName], [u].[password], [u].[pathAvatar], [u].[phoneNumber], [u].[roleId], [u].[status], [s].[Id], [s].[categoryId], [s].[pathThumbnail], [s].[subCateName]
FROM (
    SELECT [p].[Id], [p].[dateCreate], [p].[detailContent], [p].[pathThumbnail], [p].[postTitle], [p].[status], [p].[subCategoriesId], [p].[summaryContent], [p].[userId]
    FROM [Posts] AS [p]
    WHERE [p].[status] = 0
    ORDER BY [p].[dateCreate] DESC
    OFFSET 0 ROWS FETCH NEXT @__p_0 ROWS ONLY
) AS [t]
INNER JOIN [Users] AS [u] ON [t].[userId] = [u].[Id]
INNER JOIN [SubCategories] AS [s] ON [t].[subCategoriesId] = [s].[Id]
ORDER BY [t].[dateCreate] DESC" (0723d8ff)
2020-04-18T10:05:49.3902541+07:00 80000008-0003-fb00-b63f-84710c7967bb [INF] Executed DbCommand ("46"ms) [Parameters=["@__getUrl_1='http://localhost:63168/images' (Size = 4000), @__p_0='12'"], CommandType='Text', CommandTimeout='30']"
""SELECT [t].[dateCreate], [t].[Id], @__getUrl_1 + [t].[pathThumbnail] AS [pathThumbnail], [t].[postTitle], [t].[summaryContent], [u].[Id], [u].[address], [u].[description], [u].[email], [u].[fullName], [u].[password], [u].[pathAvatar], [u].[phoneNumber], [u].[roleId], [u].[status], [s].[Id], [s].[categoryId], [s].[pathThumbnail], [s].[subCateName]
FROM (
    SELECT TOP(@__p_0) [p].[Id], [p].[dateCreate], [p].[detailContent], [p].[pathThumbnail], [p].[postTitle], [p].[status], [p].[subCategoriesId], [p].[summaryContent], [p].[userId], (
        SELECT TOP(1) [c].[Id]
        FROM [Comments] AS [c]
        WHERE [p].[Id] = [c].[postId]
        ORDER BY [c].[dateCreate] DESC) AS [c]
    FROM [Posts] AS [p]
    ORDER BY (
        SELECT TOP(1) [c].[Id]
        FROM [Comments] AS [c]
        WHERE [p].[Id] = [c].[postId]
        ORDER BY [c].[dateCreate] DESC) DESC
) AS [t]
INNER JOIN [Users] AS [u] ON [t].[userId] = [u].[Id]
INNER JOIN [SubCategories] AS [s] ON [t].[subCategoriesId] = [s].[Id]
WHERE [t].[status] = 0
ORDER BY [t].[c] DESC" (0723d8ff)
2020-04-18T10:05:49.4016759+07:00 800003d2-0002-fe00-b63f-84710c7967bb [INF] Executed DbCommand ("70"ms) [Parameters=["@__p_0='9', @__getUrl_1='http://localhost:63168/images' (Size = 4000)"], CommandType='Text', CommandTimeout='30']"
""SELECT TOP(@__p_0) [p].[dateCreate], [p].[Id], @__getUrl_1 + [p].[pathThumbnail] AS [pathThumbnail], [p].[postTitle], [p].[summaryContent], [p].[fullName], [p].[subCateName]
FROM [PostsHotViews] AS [p]
WHERE [p].[status] = 0" (0723d8ff)
2020-04-18T10:06:29.3716793+07:00 8000021a-0003-fe00-b63f-84710c7967bb [INF] Entity Framework Core "3.1.3" initialized '"BlogContext"' using provider '"Microsoft.EntityFrameworkCore.SqlServer"' with options: "SensitiveDataLoggingEnabled " (9958f5bb)
2020-04-18T10:06:29.3716793+07:00 80000228-0003-ff00-b63f-84710c7967bb [INF] Entity Framework Core "3.1.3" initialized '"BlogContext"' using provider '"Microsoft.EntityFrameworkCore.SqlServer"' with options: "SensitiveDataLoggingEnabled " (9958f5bb)
2020-04-18T10:06:29.3749895+07:00 8000000b-0003-fb00-b63f-84710c7967bb [INF] Entity Framework Core "3.1.3" initialized '"BlogContext"' using provider '"Microsoft.EntityFrameworkCore.SqlServer"' with options: "SensitiveDataLoggingEnabled " (9958f5bb)
2020-04-18T10:06:29.3861914+07:00 800003d4-0002-fe00-b63f-84710c7967bb [INF] Entity Framework Core "3.1.3" initialized '"BlogContext"' using provider '"Microsoft.EntityFrameworkCore.SqlServer"' with options: "SensitiveDataLoggingEnabled " (9958f5bb)
2020-04-18T10:06:29.3895942+07:00 8000021a-0003-fe00-b63f-84710c7967bb [INF] Executed DbCommand ("16"ms) [Parameters=[""], CommandType='Text', CommandTimeout='30']"
""SELECT [c].[Id], [c].[cateName]
FROM [Categories] AS [c]" (0723d8ff)
2020-04-18T10:06:29.3953591+07:00 8000000b-0003-fb00-b63f-84710c7967bb [INF] Executed DbCommand ("14"ms) [Parameters=["@__getUrl_1='http://localhost:63168/images' (Size = 4000), @__p_0='12'"], CommandType='Text', CommandTimeout='30']"
""SELECT [t].[dateCreate], [t].[Id], @__getUrl_1 + [t].[pathThumbnail] AS [pathThumbnail], [t].[postTitle], [t].[summaryContent], [u].[Id], [u].[address], [u].[description], [u].[email], [u].[fullName], [u].[password], [u].[pathAvatar], [u].[phoneNumber], [u].[roleId], [u].[status], [s].[Id], [s].[categoryId], [s].[pathThumbnail], [s].[subCateName]
FROM (
    SELECT TOP(@__p_0) [p].[Id], [p].[dateCreate], [p].[detailContent], [p].[pathThumbnail], [p].[postTitle], [p].[status], [p].[subCategoriesId], [p].[summaryContent], [p].[userId], (
        SELECT TOP(1) [c].[Id]
        FROM [Comments] AS [c]
        WHERE [p].[Id] = [c].[postId]
        ORDER BY [c].[dateCreate] DESC) AS [c]
    FROM [Posts] AS [p]
    ORDER BY (
        SELECT TOP(1) [c].[Id]
        FROM [Comments] AS [c]
        WHERE [p].[Id] = [c].[postId]
        ORDER BY [c].[dateCreate] DESC) DESC
) AS [t]
INNER JOIN [Users] AS [u] ON [t].[userId] = [u].[Id]
INNER JOIN [SubCategories] AS [s] ON [t].[subCategoriesId] = [s].[Id]
WHERE [t].[status] = 0
ORDER BY [t].[c] DESC" (0723d8ff)
2020-04-18T10:06:29.3962659+07:00 80000228-0003-ff00-b63f-84710c7967bb [INF] Executed DbCommand ("12"ms) [Parameters=["@__p_0='9', @__getUrl_1='http://localhost:63168/images' (Size = 4000)"], CommandType='Text', CommandTimeout='30']"
""SELECT TOP(@__p_0) [p].[dateCreate], [p].[Id], @__getUrl_1 + [p].[pathThumbnail] AS [pathThumbnail], [p].[postTitle], [p].[summaryContent], [p].[fullName], [p].[subCateName]
FROM [PostsHotViews] AS [p]
WHERE [p].[status] = 0" (0723d8ff)
2020-04-18T10:06:29.4050227+07:00 800003d4-0002-fe00-b63f-84710c7967bb [INF] Executed DbCommand ("0"ms) [Parameters=[""], CommandType='Text', CommandTimeout='30']"
""SELECT COUNT(*)
FROM [Posts] AS [p]
WHERE [p].[status] = 0" (0723d8ff)
2020-04-18T10:06:29.4070063+07:00 800003d4-0002-fe00-b63f-84710c7967bb [INF] Executed DbCommand ("0"ms) [Parameters=["@__getUrl_1='http://localhost:63168/images' (Size = 4000), @__p_0='9'"], CommandType='Text', CommandTimeout='30']"
""SELECT [t].[dateCreate], [t].[Id], @__getUrl_1 + [t].[pathThumbnail] AS [pathThumbnail], [t].[postTitle], [t].[summaryContent], [u].[Id], [u].[address], [u].[description], [u].[email], [u].[fullName], [u].[password], [u].[pathAvatar], [u].[phoneNumber], [u].[roleId], [u].[status], [s].[Id], [s].[categoryId], [s].[pathThumbnail], [s].[subCateName]
FROM (
    SELECT [p].[Id], [p].[dateCreate], [p].[detailContent], [p].[pathThumbnail], [p].[postTitle], [p].[status], [p].[subCategoriesId], [p].[summaryContent], [p].[userId]
    FROM [Posts] AS [p]
    WHERE [p].[status] = 0
    ORDER BY [p].[dateCreate] DESC
    OFFSET 0 ROWS FETCH NEXT @__p_0 ROWS ONLY
) AS [t]
INNER JOIN [Users] AS [u] ON [t].[userId] = [u].[Id]
INNER JOIN [SubCategories] AS [s] ON [t].[subCategoriesId] = [s].[Id]
ORDER BY [t].[dateCreate] DESC" (0723d8ff)
2020-04-18T10:06:34.6862621+07:00 8000021c-0003-fe00-b63f-84710c7967bb [INF] Entity Framework Core "3.1.3" initialized '"BlogContext"' using provider '"Microsoft.EntityFrameworkCore.SqlServer"' with options: "SensitiveDataLoggingEnabled " (9958f5bb)
2020-04-18T10:06:34.6868210+07:00 800003d6-0002-fe00-b63f-84710c7967bb [INF] Entity Framework Core "3.1.3" initialized '"BlogContext"' using provider '"Microsoft.EntityFrameworkCore.SqlServer"' with options: "SensitiveDataLoggingEnabled " (9958f5bb)
2020-04-18T10:06:34.6933882+07:00 8000022a-0003-ff00-b63f-84710c7967bb [INF] Entity Framework Core "3.1.3" initialized '"BlogContext"' using provider '"Microsoft.EntityFrameworkCore.SqlServer"' with options: "SensitiveDataLoggingEnabled " (9958f5bb)
2020-04-18T10:06:34.6990450+07:00 8000000d-0003-fb00-b63f-84710c7967bb [INF] Entity Framework Core "3.1.3" initialized '"BlogContext"' using provider '"Microsoft.EntityFrameworkCore.SqlServer"' with options: "SensitiveDataLoggingEnabled " (9958f5bb)
2020-04-18T10:06:34.7304924+07:00 8000022a-0003-ff00-b63f-84710c7967bb [INF] Executed DbCommand ("33"ms) [Parameters=["@__p_0='9', @__getUrl_1='http://localhost:63168/images' (Size = 4000)"], CommandType='Text', CommandTimeout='30']"
""SELECT TOP(@__p_0) [p].[dateCreate], [p].[Id], @__getUrl_1 + [p].[pathThumbnail] AS [pathThumbnail], [p].[postTitle], [p].[summaryContent], [p].[fullName], [p].[subCateName]
FROM [PostsHotViews] AS [p]
WHERE [p].[status] = 0" (0723d8ff)
2020-04-18T10:06:34.7305370+07:00 8000000d-0003-fb00-b63f-84710c7967bb [INF] Executed DbCommand ("28"ms) [Parameters=["@__getUrl_1='http://localhost:63168/images' (Size = 4000), @__p_0='12'"], CommandType='Text', CommandTimeout='30']"
""SELECT [t].[dateCreate], [t].[Id], @__getUrl_1 + [t].[pathThumbnail] AS [pathThumbnail], [t].[postTitle], [t].[summaryContent], [u].[Id], [u].[address], [u].[description], [u].[email], [u].[fullName], [u].[password], [u].[pathAvatar], [u].[phoneNumber], [u].[roleId], [u].[status], [s].[Id], [s].[categoryId], [s].[pathThumbnail], [s].[subCateName]
FROM (
    SELECT TOP(@__p_0) [p].[Id], [p].[dateCreate], [p].[detailContent], [p].[pathThumbnail], [p].[postTitle], [p].[status], [p].[subCategoriesId], [p].[summaryContent], [p].[userId], (
        SELECT TOP(1) [c].[Id]
        FROM [Comments] AS [c]
        WHERE [p].[Id] = [c].[postId]
        ORDER BY [c].[dateCreate] DESC) AS [c]
    FROM [Posts] AS [p]
    ORDER BY (
        SELECT TOP(1) [c].[Id]
        FROM [Comments] AS [c]
        WHERE [p].[Id] = [c].[postId]
        ORDER BY [c].[dateCreate] DESC) DESC
) AS [t]
INNER JOIN [Users] AS [u] ON [t].[userId] = [u].[Id]
INNER JOIN [SubCategories] AS [s] ON [t].[subCategoriesId] = [s].[Id]
WHERE [t].[status] = 0
ORDER BY [t].[c] DESC" (0723d8ff)
2020-04-18T10:06:34.7390616+07:00 8000021c-0003-fe00-b63f-84710c7967bb [INF] Executed DbCommand ("36"ms) [Parameters=[""], CommandType='Text', CommandTimeout='30']"
""SELECT [c].[Id], [c].[cateName]
FROM [Categories] AS [c]" (0723d8ff)
2020-04-18T10:06:34.7607351+07:00 800003d6-0002-fe00-b63f-84710c7967bb [INF] Executed DbCommand ("71"ms) [Parameters=[""], CommandType='Text', CommandTimeout='30']"
""SELECT COUNT(*)
FROM [Posts] AS [p]
WHERE [p].[status] = 0" (0723d8ff)
2020-04-18T10:06:34.7697382+07:00 800003d6-0002-fe00-b63f-84710c7967bb [INF] Executed DbCommand ("6"ms) [Parameters=["@__getUrl_1='http://localhost:63168/images' (Size = 4000), @__p_0='9'"], CommandType='Text', CommandTimeout='30']"
""SELECT [t].[dateCreate], [t].[Id], @__getUrl_1 + [t].[pathThumbnail] AS [pathThumbnail], [t].[postTitle], [t].[summaryContent], [u].[Id], [u].[address], [u].[description], [u].[email], [u].[fullName], [u].[password], [u].[pathAvatar], [u].[phoneNumber], [u].[roleId], [u].[status], [s].[Id], [s].[categoryId], [s].[pathThumbnail], [s].[subCateName]
FROM (
    SELECT [p].[Id], [p].[dateCreate], [p].[detailContent], [p].[pathThumbnail], [p].[postTitle], [p].[status], [p].[subCategoriesId], [p].[summaryContent], [p].[userId]
    FROM [Posts] AS [p]
    WHERE [p].[status] = 0
    ORDER BY [p].[dateCreate] DESC
    OFFSET 0 ROWS FETCH NEXT @__p_0 ROWS ONLY
) AS [t]
INNER JOIN [Users] AS [u] ON [t].[userId] = [u].[Id]
INNER JOIN [SubCategories] AS [s] ON [t].[subCategoriesId] = [s].[Id]
ORDER BY [t].[dateCreate] DESC" (0723d8ff)
2020-04-18T10:06:43.5374688+07:00 800003d9-0002-fe00-b63f-84710c7967bb [INF] Entity Framework Core "3.1.3" initialized '"BlogContext"' using provider '"Microsoft.EntityFrameworkCore.SqlServer"' with options: "SensitiveDataLoggingEnabled " (9958f5bb)
2020-04-18T10:06:43.5392680+07:00 800004ee-0001-fd00-b63f-84710c7967bb [INF] Entity Framework Core "3.1.3" initialized '"BlogContext"' using provider '"Microsoft.EntityFrameworkCore.SqlServer"' with options: "SensitiveDataLoggingEnabled " (9958f5bb)
2020-04-18T10:06:43.5421439+07:00 800003d9-0002-fe00-b63f-84710c7967bb [INF] Executed DbCommand ("3"ms) [Parameters=[""], CommandType='Text', CommandTimeout='30']"
""SELECT [c].[Id], [c].[cateName]
FROM [Categories] AS [c]" (0723d8ff)
2020-04-18T10:06:43.5421826+07:00 800000e6-0002-ff00-b63f-84710c7967bb [INF] Entity Framework Core "3.1.3" initialized '"BlogContext"' using provider '"Microsoft.EntityFrameworkCore.SqlServer"' with options: "SensitiveDataLoggingEnabled " (9958f5bb)
2020-04-18T10:06:43.5452707+07:00 8000042a-0001-fe00-b63f-84710c7967bb [INF] Entity Framework Core "3.1.3" initialized '"BlogContext"' using provider '"Microsoft.EntityFrameworkCore.SqlServer"' with options: "SensitiveDataLoggingEnabled " (9958f5bb)
2020-04-18T10:06:43.5486842+07:00 8000042a-0001-fe00-b63f-84710c7967bb [INF] Executed DbCommand ("3"ms) [Parameters=[""], CommandType='Text', CommandTimeout='30']"
""SELECT COUNT(*)
FROM [Posts] AS [p]
WHERE [p].[status] = 0" (0723d8ff)
2020-04-18T10:06:43.5540562+07:00 800004ee-0001-fd00-b63f-84710c7967bb [INF] Executed DbCommand ("12"ms) [Parameters=["@__p_0='9', @__getUrl_1='http://localhost:63168/images' (Size = 4000)"], CommandType='Text', CommandTimeout='30']"
""SELECT TOP(@__p_0) [p].[dateCreate], [p].[Id], @__getUrl_1 + [p].[pathThumbnail] AS [pathThumbnail], [p].[postTitle], [p].[summaryContent], [p].[fullName], [p].[subCateName]
FROM [PostsHotViews] AS [p]
WHERE [p].[status] = 0" (0723d8ff)
2020-04-18T10:06:43.5598967+07:00 8000042a-0001-fe00-b63f-84710c7967bb [INF] Executed DbCommand ("9"ms) [Parameters=["@__getUrl_1='http://localhost:63168/images' (Size = 4000), @__p_0='9'"], CommandType='Text', CommandTimeout='30']"
""SELECT [t].[dateCreate], [t].[Id], @__getUrl_1 + [t].[pathThumbnail] AS [pathThumbnail], [t].[postTitle], [t].[summaryContent], [u].[Id], [u].[address], [u].[description], [u].[email], [u].[fullName], [u].[password], [u].[pathAvatar], [u].[phoneNumber], [u].[roleId], [u].[status], [s].[Id], [s].[categoryId], [s].[pathThumbnail], [s].[subCateName]
FROM (
    SELECT [p].[Id], [p].[dateCreate], [p].[detailContent], [p].[pathThumbnail], [p].[postTitle], [p].[status], [p].[subCategoriesId], [p].[summaryContent], [p].[userId]
    FROM [Posts] AS [p]
    WHERE [p].[status] = 0
    ORDER BY [p].[dateCreate] DESC
    OFFSET 0 ROWS FETCH NEXT @__p_0 ROWS ONLY
) AS [t]
INNER JOIN [Users] AS [u] ON [t].[userId] = [u].[Id]
INNER JOIN [SubCategories] AS [s] ON [t].[subCategoriesId] = [s].[Id]
ORDER BY [t].[dateCreate] DESC" (0723d8ff)
2020-04-18T10:06:43.5824573+07:00 800000e6-0002-ff00-b63f-84710c7967bb [INF] Executed DbCommand ("11"ms) [Parameters=["@__getUrl_1='http://localhost:63168/images' (Size = 4000), @__p_0='12'"], CommandType='Text', CommandTimeout='30']"
""SELECT [t].[dateCreate], [t].[Id], @__getUrl_1 + [t].[pathThumbnail] AS [pathThumbnail], [t].[postTitle], [t].[summaryContent], [u].[Id], [u].[address], [u].[description], [u].[email], [u].[fullName], [u].[password], [u].[pathAvatar], [u].[phoneNumber], [u].[roleId], [u].[status], [s].[Id], [s].[categoryId], [s].[pathThumbnail], [s].[subCateName]
FROM (
    SELECT TOP(@__p_0) [p].[Id], [p].[dateCreate], [p].[detailContent], [p].[pathThumbnail], [p].[postTitle], [p].[status], [p].[subCategoriesId], [p].[summaryContent], [p].[userId], (
        SELECT TOP(1) [c].[Id]
        FROM [Comments] AS [c]
        WHERE [p].[Id] = [c].[postId]
        ORDER BY [c].[dateCreate] DESC) AS [c]
    FROM [Posts] AS [p]
    ORDER BY (
        SELECT TOP(1) [c].[Id]
        FROM [Comments] AS [c]
        WHERE [p].[Id] = [c].[postId]
        ORDER BY [c].[dateCreate] DESC) DESC
) AS [t]
INNER JOIN [Users] AS [u] ON [t].[userId] = [u].[Id]
INNER JOIN [SubCategories] AS [s] ON [t].[subCategoriesId] = [s].[Id]
WHERE [t].[status] = 0
ORDER BY [t].[c] DESC" (0723d8ff)
2020-04-18T10:12:16.4977857+07:00  [INF] Application started. Press Ctrl+C to shut down. (dcaefe54)
2020-04-18T10:12:16.5078957+07:00  [INF] Hosting environment: "Development" (c3307c92)
2020-04-18T10:12:16.5093673+07:00  [INF] Content root path: "D:\angular_api\API_Blog\API_Blog" (b5d60022)
2020-04-18T10:12:17.3047514+07:00 8000021e-0003-fe00-b63f-84710c7967bb [WRN] Sensitive data logging is enabled. Log entries and exception messages may include sensitive application data, this mode should only be enabled during development. (2b730620)
2020-04-18T10:12:17.4011027+07:00 8000021e-0003-fe00-b63f-84710c7967bb [INF] Entity Framework Core "3.1.3" initialized '"BlogContext"' using provider '"Microsoft.EntityFrameworkCore.SqlServer"' with options: "SensitiveDataLoggingEnabled " (9958f5bb)
2020-04-18T10:12:18.0217767+07:00 8000021e-0003-fe00-b63f-84710c7967bb [INF] Executed DbCommand ("36"ms) [Parameters=[""], CommandType='Text', CommandTimeout='30']"
""SELECT [c].[Id], [c].[cateName]
FROM [Categories] AS [c]" (0723d8ff)
2020-04-18T10:13:58.9575774+07:00 8000035c-0002-fd00-b63f-84710c7967bb [INF] Entity Framework Core "3.1.3" initialized '"BlogContext"' using provider '"Microsoft.EntityFrameworkCore.SqlServer"' with options: "SensitiveDataLoggingEnabled " (9958f5bb)
2020-04-18T10:13:58.9575774+07:00 800002de-0000-fd00-b63f-84710c7967bb [INF] Entity Framework Core "3.1.3" initialized '"BlogContext"' using provider '"Microsoft.EntityFrameworkCore.SqlServer"' with options: "SensitiveDataLoggingEnabled " (9958f5bb)
2020-04-18T10:13:58.9739978+07:00 80000010-0003-fb00-b63f-84710c7967bb [INF] Entity Framework Core "3.1.3" initialized '"BlogContext"' using provider '"Microsoft.EntityFrameworkCore.SqlServer"' with options: "SensitiveDataLoggingEnabled " (9958f5bb)
2020-04-18T10:13:58.9764314+07:00 80000185-0002-fa00-b63f-84710c7967bb [INF] Entity Framework Core "3.1.3" initialized '"BlogContext"' using provider '"Microsoft.EntityFrameworkCore.SqlServer"' with options: "SensitiveDataLoggingEnabled " (9958f5bb)
2020-04-18T10:13:58.9831465+07:00 80000185-0002-fa00-b63f-84710c7967bb [INF] Executed DbCommand ("4"ms) [Parameters=[""], CommandType='Text', CommandTimeout='30']"
""SELECT [c].[Id], [c].[cateName]
FROM [Categories] AS [c]" (0723d8ff)
2020-04-18T10:13:59.1244995+07:00 8000035c-0002-fd00-b63f-84710c7967bb [INF] Executed DbCommand ("59"ms) [Parameters=[""], CommandType='Text', CommandTimeout='30']"
""SELECT COUNT(*)
FROM [Posts] AS [p]
WHERE [p].[status] = 0" (0723d8ff)
2020-04-18T10:13:59.1586612+07:00 800002de-0000-fd00-b63f-84710c7967bb [INF] Executed DbCommand ("48"ms) [Parameters=["@__getUrl_1='http://localhost:63168/images' (Size = 4000), @__p_0='12'"], CommandType='Text', CommandTimeout='30']"
""SELECT [t].[dateCreate], [t].[Id], @__getUrl_1 + [t].[pathThumbnail] AS [pathThumbnail], [t].[postTitle], [t].[summaryContent], [u].[Id], [u].[address], [u].[description], [u].[email], [u].[fullName], [u].[password], [u].[pathAvatar], [u].[phoneNumber], [u].[roleId], [u].[status], [s].[Id], [s].[categoryId], [s].[pathThumbnail], [s].[subCateName]
FROM (
    SELECT TOP(@__p_0) [p].[Id], [p].[dateCreate], [p].[detailContent], [p].[pathThumbnail], [p].[postTitle], [p].[status], [p].[subCategoriesId], [p].[summaryContent], [p].[userId], (
        SELECT TOP(1) [c].[Id]
        FROM [Comments] AS [c]
        WHERE [p].[Id] = [c].[postId]
        ORDER BY [c].[dateCreate] DESC) AS [c]
    FROM [Posts] AS [p]
    ORDER BY (
        SELECT TOP(1) [c].[Id]
        FROM [Comments] AS [c]
        WHERE [p].[Id] = [c].[postId]
        ORDER BY [c].[dateCreate] DESC) DESC
) AS [t]
INNER JOIN [Users] AS [u] ON [t].[userId] = [u].[Id]
INNER JOIN [SubCategories] AS [s] ON [t].[subCategoriesId] = [s].[Id]
WHERE [t].[status] = 0
ORDER BY [t].[c] DESC" (0723d8ff)
2020-04-18T10:13:59.1586625+07:00 80000010-0003-fb00-b63f-84710c7967bb [INF] Executed DbCommand ("64"ms) [Parameters=["@__p_0='9', @__getUrl_1='http://localhost:63168/images' (Size = 4000)"], CommandType='Text', CommandTimeout='30']"
""SELECT TOP(@__p_0) [p].[dateCreate], [p].[Id], @__getUrl_1 + [p].[pathThumbnail] AS [pathThumbnail], [p].[postTitle], [p].[summaryContent], [p].[fullName], [p].[subCateName]
FROM [PostsHotViews] AS [p]
WHERE [p].[status] = 0" (0723d8ff)
2020-04-18T10:13:59.1586565+07:00 8000035c-0002-fd00-b63f-84710c7967bb [INF] Executed DbCommand ("19"ms) [Parameters=["@__getUrl_1='http://localhost:63168/images' (Size = 4000), @__p_0='9'"], CommandType='Text', CommandTimeout='30']"
""SELECT [t].[dateCreate], [t].[Id], @__getUrl_1 + [t].[pathThumbnail] AS [pathThumbnail], [t].[postTitle], [t].[summaryContent], [u].[Id], [u].[address], [u].[description], [u].[email], [u].[fullName], [u].[password], [u].[pathAvatar], [u].[phoneNumber], [u].[roleId], [u].[status], [s].[Id], [s].[categoryId], [s].[pathThumbnail], [s].[subCateName]
FROM (
    SELECT [p].[Id], [p].[dateCreate], [p].[detailContent], [p].[pathThumbnail], [p].[postTitle], [p].[status], [p].[subCategoriesId], [p].[summaryContent], [p].[userId]
    FROM [Posts] AS [p]
    WHERE [p].[status] = 0
    ORDER BY [p].[dateCreate] DESC
    OFFSET 0 ROWS FETCH NEXT @__p_0 ROWS ONLY
) AS [t]
INNER JOIN [Users] AS [u] ON [t].[userId] = [u].[Id]
INNER JOIN [SubCategories] AS [s] ON [t].[subCategoriesId] = [s].[Id]
ORDER BY [t].[dateCreate] DESC" (0723d8ff)
2020-04-18T10:14:15.2144085+07:00 8000035e-0002-fd00-b63f-84710c7967bb [INF] Entity Framework Core "3.1.3" initialized '"BlogContext"' using provider '"Microsoft.EntityFrameworkCore.SqlServer"' with options: "SensitiveDataLoggingEnabled " (9958f5bb)
2020-04-18T10:14:15.2525364+07:00 8000035e-0002-fd00-b63f-84710c7967bb [INF] Executed DbCommand ("12"ms) [Parameters=["@__Trim_0='asd@gmail.com' (Size = 4000)"], CommandType='Text', CommandTimeout='30']"
""SELECT TOP(1) [g].[Id], [g].[email], [g].[fullName]
FROM [Guests] AS [g]
WHERE [g].[email] = @__Trim_0" (0723d8ff)
